^D:\LABS\PROJECTS\TASK-01\TASK-01\TASK-02\DEBUG\TASK01-2.OBJ
D:\LABS\PROJECTS\TASK-01\TASK-01\DEBUG\TASK-02.ILK
D:\LABS\PROJECTS\TASK-01\TASK-01\DEBUG\TASK-02.EXE
D:\LABS\PROJECTS\TASK-01\TASK-01\DEBUG\TASK-02.PDB
